00000438
00000000 
0002DF00
50000000
00000001
00000000
00000000
03092DCE
00000018
00000000
48AD46F8
1819FF88
00001EAA
00001EAA
00003C63
00000000
00000000
00000000
0000DA2D
0000047D
9977750F
00000000
00009DCA
00000000
9207750F
00000000
0000994D
00000000
00000000
00000000
9205CD46
00000000
0001A7C9
00000000
00000000
00000000
00000000
00000000
00000001
00000000
00000000
0000760D
00005853
00000000
00002DED
000008ED
00000585
0000046B
00000000
00000000
00000000
00000000
00000000
00000000
00000000
00AD60DD
00651B8A
0001FCF9
00004578
00000E10
000004AC
0000013F
00FFFFFF
00FFFFFF
001D64EE
0005568A
00022A2D
0000D877
000048DA
00001BF8
0000060A
0000060A
0000060A
00000000
0000060A
000005AA
0000049C
000003AB
00000000
00000000
00000000
00000000
00000000
00000000
00000000
00000000
00000000
00000000
00000000
000011FA
00000000
00000000
00000021
00000021
00000021
00000021
00000000
00000000
000000AA
00006440
0000538D
00000036
000039FF
00000003
00000003
00000000
00000000
00000000
00000000
00000000
00000000
0046D3AB
00000000
0001FAF3
00000000
00000000
0000225E
00000599
00000255
00000148
00000000
00000000
00000000
00000000
00000000
00000000
00000000
00000000
00000000
000000DC
00000000
00000079
00000000
00000F94
00000000
00000000
00000000
00000000
00000000
00000CBA
00000141
000000AE
000000DE
0000009B
00000F94
00000F58
000004E7
00000000
00000000
00000000
00000000
00000000
00000000
00000000
00000000
00000000
00000000
00000000
00000000
00000000
00000000
00000000
00000000
00000000
00000000
00000000
00000000
00000000
00000000
000FFFFF
000FFFFF
000FFFFF
000FFFFF
000FFFFF
000FFFFF
000FFFFF
000FFFFF
000FFFFF
000FFFFF
000FFFFF
000FFFFF
000FFFFF
000FFFFF
000FFFFF
000FFFFF
000FFFFF
000FFFFF
000FFFFF
000FFFFF
000FFFFF
000FFFFF
000FFFFF
000FFFFF
0004F6B7
00000010
00000000
00001FB9
000FFFFF
000FFFFF
000FFFFF
000FFFFF
000FFFFF
000FFFFF
000FFFFF
000FFFFF
000FFFFF
000FFFFF
000FFFFF
000FFFFF
000FFFFF
000FFFFF
000FFFFF
000FFFFF
000FFFFF
000FFFFF
000FFFFF
000FFFFF
000FFFFF
000FFFFF
000FFFFF
000FFFFF
000FFFFF
000FFFFF
000FFFFF
000FFFFF
000FFFFF
000FFFFF
000FFFFF
000FFFFF
000FFFFF
000FFFFF
000FFFFF
000FFFFF
48AD3E50
197C94F8
00000000
00000000
00000000
00000000
00000000
00000000
00000000
00000000
09EE9200
00000000
00000000
00000000
00000000
00000000
00000000
00000000
00000000
00000000
00000000
00000000
00000000
00000000
00000000
00000000
00000000
00000000
00000000
00000000
38360000
00000000
00000000
00008000
00008000
00000000
00000000
00000000
A0000087
00000000
80000000

